Duong Le Thuy Nguyen,Hee Joo Park,Emma Schoner,Vanessa Latorelli,Chaejun Lim,Cade Lanzafame,Luc-Andre Sader,Lucy Moreau,Raquel Reis,Carlee Reid,Elizabeth Masyukova,Erik Vanderberg,Jordan Little,Sven Vanderberg,Ethan Shelden,Vinayak Rao,Trinity Williams,Beckett Sanderson,Allen Chen,Serena Lin
Adidas,Under Armour,Nike,Adidas,Nike,Nike,Nike,New Balance,Nike,Nike,Puma,Nike,Adidas,Puma,Nike,Nike,Nike,Adidas,Adidas,Converse
Adidas,Nike,Nike,Adidas,Nike,Nike,Nike,Nike,New Balance,Nike,Brooks,New Balance,Converse,Nike,Nike,Nike,Nike,Nike,New Balance,Converse
Nike,Adidas,Nike,Puma,Adidas,Under Armour,Nike,Nike,Nike,Nike,Brooks,Reebok,Nike,Adidas,Adidas,Adidas,Nike,Nike,Puma,Converse
Fila,Adidas,New Balance,Nike,New Balance,Adidas,Adidas,Asics,Nike,Adidas,Nike,Nike,Adidas,New Balance,Vans,Adidas,Adidas,Asics,Nike,Vans
Converse,Converse,Nike,Vans,Nike,Nike,Nike,New Balance,Reebok,Converse,Brooks,Nike,Nike,Reebok,Converse,Reebok,Nike,Nike,Nike,Vans
Vans,Converse,Altra,Vans,Under Armour,Asics,New Balance,Reebok,Asics,Converse,Adidas,Adidas,Vans,Puma,Nike,New Balance,Sketchers,New Balance,Adidas,Nike
Nike,Nike,Nike,Converse,Nike,New Balance,Nike,Nike,Nike,Nike,Adidas,Puma,Asics,Nike,Nike,Nike,Nike,Nike,Nike,Nike
Crocs,Nike,Nike,Nike,Nike,Adidas,Asics,Champion,Nike,Nike,Asics,Nike,Converse,Adidas,Converse,Nike,Adidas,Adidas,Converse,Reebok
Timberland,Converse,Converse,Vans,Nike,Nike,Nike,Vionic,Nike,Converse,Reebok,Adidas,Adidas,DrMartens,Vans,Vans,Nike,Puma,Vans,Nike
Adidas,Under Armour,Nike,Adidas,Adidas,Fila,Under Armour,Nike,Vans,Vans,Adidas,Adidas,Nike,Vans,Nike,Vans,Nike,Reebok,Nike,Nike